morse_code/simulation/qsim/morsecode.msim.vcd
$comment
	File created using the following command:
		vcd file morsecode.msim.vcd -direction
$end
$date
	Fri Dec 09 13:35:53 2022
$end
$version
	ModelSim Version 10.1d
$end
$timescale
	1ps
$end
$scope module morse_code_vlg_vec_tst $end
$var reg 1 ! half_sec $end
$var reg 3 " letter_in [2:0] $end
$var reg 1 # reset $end
$var reg 1 $ start $end
$var wire 1 % en $end
$var wire 1 & length_out [3] $end
$var wire 1 ' length_out [2] $end
$var wire 1 ( length_out [1] $end
$var wire 1 ) length_out [0] $end
$var wire 1 * light $end
$var wire 1 + lsbit_sreg $end
$var wire 1 , morsecode_shiftreg [12] $end
$var wire 1 - morsecode_shiftreg [11] $end
$var wire 1 . morsecode_shiftreg [10] $end
$var wire 1 / morsecode_shiftreg [9] $end
$var wire 1 0 morsecode_shiftreg [8] $end
$var wire 1 1 morsecode_shiftreg [7] $end
$var wire 1 2 morsecode_shiftreg [6] $end
$var wire 1 3 morsecode_shiftreg [5] $end
$var wire 1 4 morsecode_shiftreg [4] $end
$var wire 1 5 morsecode_shiftreg [3] $end
$var wire 1 6 morsecode_shiftreg [2] $end
$var wire 1 7 morsecode_shiftreg [1] $end
$var wire 1 8 morsecode_shiftreg [0] $end
$var wire 1 9 state [3] $end
$var wire 1 : state [2] $end
$var wire 1 ; state [1] $end
$var wire 1 < state [0] $end
$var wire 1 = sampler $end
$scope module i1 $end
$var wire 1 > gnd $end
$var wire 1 ? vcc $end
$var wire 1 @ unknown $end
$var tri1 1 A devclrn $end
$var tri1 1 B devpor $end
$var tri1 1 C devoe $end
$var wire 1 D U0|U0|q_out[1]~_emulated_regout $end
$var wire 1 E U0|U0|q_out[2]~_emulated_regout $end
$var wire 1 F U0|U0|q_out[3]~_emulated_regout $end
$var wire 1 G U0|U1|shiftreg_out[2]~_emulated_regout $end
$var wire 1 H U0|U1|shiftreg_out[4]~_emulated_regout $end
$var wire 1 I U0|U1|shiftreg_out[5]~_emulated_regout $end
$var wire 1 J U0|U1|shiftreg_out[6]~_emulated_regout $end
$var wire 1 K U0|U1|shiftreg_out[8]~_emulated_regout $end
$var wire 1 L U0|U1|shiftreg_out[9]~_emulated_regout $end
$var wire 1 M U0|U1|shiftreg_out[11]~_emulated_regout $end
$var wire 1 N U1|Mux4~0_combout $end
$var wire 1 O U1|Mux2~0_combout $end
$var wire 1 P U0|U0|q_out[2]~7_combout $end
$var wire 1 Q U1|Mux4~4_combout $end
$var wire 1 R U0|U0|q_out[3]~11_combout $end
$var wire 1 S U0|U1|shiftreg_out[2]~3_combout $end
$var wire 1 T U0|U1|shiftreg_out[4]~11_combout $end
$var wire 1 U U0|U1|shiftreg_out[5]~13_combout $end
$var wire 1 V U0|U1|shiftreg_out[6]~17_combout $end
$var wire 1 W U0|U1|shiftreg_out[8]~23_combout $end
$var wire 1 X U0|U1|shiftreg_out[9]~27_combout $end
$var wire 1 Y U0|U0|q_out[1]~3_combout $end
$var wire 1 Z start~combout $end
$var wire 1 [ U0|U1|shiftreg_out[0]~45_combout $end
$var wire 1 \ U0|U2|Decoder2~3_combout $end
$var wire 1 ] U0|U2|WideOr1~0_combout $end
$var wire 1 ^ U0|U1|shiftreg_out[2]~1_combout $end
$var wire 1 _ U0|U1|shiftreg_out[2]~2_combout $end
$var wire 1 ` U0|U2|Decoder2~4_combout $end
$var wire 1 a U0|U1|shiftreg_out[8]~21_combout $end
$var wire 1 b U0|U1|shiftreg_out[11]~28_combout $end
$var wire 1 c U0|U1|shiftreg_out[1]~46_combout $end
$var wire 1 d U1|Equal0~0_combout $end
$var wire 1 e U0|U1|shiftreg_out[4]~9_combout $end
$var wire 1 f U0|U1|shiftreg_out[4]~10_combout $end
$var wire 1 g U0|U2|Decoder2~2_combout $end
$var wire 1 h U0|U1|shiftreg_out[3]~5_combout $end
$var wire 1 i U0|U1|shiftreg_out[5]~12_combout $end
$var wire 1 j U0|U2|morsecode_shiftreg[6]~0_combout $end
$var wire 1 k U0|U1|shiftreg_out[6]~15_combout $end
$var wire 1 l U0|U1|shiftreg_out[6]~16_combout $end
$var wire 1 m U1|Equal0~1_combout $end
$var wire 1 n U0|U1|shiftreg_out[8]~22_combout $end
$var wire 1 o U0|U2|morsecode_shiftreg[6]~1_combout $end
$var wire 1 p U0|U1|shiftreg_out[9]~25_combout $end
$var wire 1 q U0|U1|shiftreg_out[9]~26_combout $end
$var wire 1 r U1|Equal0~2_combout $end
$var wire 1 s U1|Mux2~1_combout $end
$var wire 1 t U1|Equal0~3_combout $end
$var wire 1 u U1|Mux1~0_combout $end
$var wire 1 v U1|Mux0~0_combout $end
$var wire 1 w reset~combout $end
$var wire 1 x U1|Mux1~1_combout $end
$var wire 1 y U1|Mux4~1_combout $end
$var wire 1 z U0|U2|WideOr0~0_combout $end
$var wire 1 { U0|U0|q_out[1]~1_combout $end
$var wire 1 | U0|U0|q_out[1]~2_combout $end
$var wire 1 } U0|U2|Decoder2~0_combout $end
$var wire 1 ~ U0|U0|q_out[2]~5_combout $end
$var wire 1 !! U0|U0|q_out[2]~6_combout $end
$var wire 1 "! U0|U2|Decoder2~1_combout $end
$var wire 1 #! U0|U0|q_out[3]~9_combout $end
$var wire 1 $! U0|U0|q_out[3]~10_combout $end
$var wire 1 %! U1|Mux4~2_combout $end
$var wire 1 &! U1|Mux4~3_combout $end
$var wire 1 '! U1|Decoder0~0_combout $end
$var wire 1 (! U1|WideOr0~0_combout $end
$var wire 1 )! U1|ctrl_enable~combout $end
$var wire 1 *! U1|WideOr2~0_combout $end
$var wire 1 +! U1|light~0_combout $end
$var wire 1 ,! half_sec~combout $end
$var wire 1 -! U0|U0|q_out[0]~20_combout $end
$var wire 1 .! U1|Mux3~0_combout $end
$var wire 1 /! U1|Mux3~1_combout $end
$var wire 1 0! U1|Mux3~2_combout $end
$var wire 1 1! U1|Mux3~3_combout $end
$var wire 1 2! U0|U1|shiftreg_out[3]~7_combout $end
$var wire 1 3! U0|U1|shiftreg_out[3]~_emulated_regout $end
$var wire 1 4! U0|U1|shiftreg_out[3]~6_combout $end
$var wire 1 5! U0|U1|shiftreg_out[7]~19_combout $end
$var wire 1 6! U0|U1|shiftreg_out[7]~_emulated_regout $end
$var wire 1 7! U0|U1|shiftreg_out[7]~18_combout $end
$var wire 1 8! letter_in~combout [2] $end
$var wire 1 9! letter_in~combout [1] $end
$var wire 1 :! letter_in~combout [0] $end
$var wire 1 ;! U1|next_state [3] $end
$var wire 1 <! U1|next_state [2] $end
$var wire 1 =! U1|next_state [1] $end
$var wire 1 >! U1|next_state [0] $end
$var wire 1 ?! U1|state [3] $end
$var wire 1 @! U1|state [2] $end
$var wire 1 A! U1|state [1] $end
$var wire 1 B! U1|state [0] $end
$var wire 1 C! U0|U0|q_out [3] $end
$var wire 1 D! U0|U0|q_out [2] $end
$var wire 1 E! U0|U0|q_out [1] $end
$var wire 1 F! U0|U0|q_out [0] $end
$var wire 1 G! U0|U1|shiftreg_out [12] $end
$var wire 1 H! U0|U1|shiftreg_out [11] $end
$var wire 1 I! U0|U1|shiftreg_out [10] $end
$var wire 1 J! U0|U1|shiftreg_out [9] $end
$var wire 1 K! U0|U1|shiftreg_out [8] $end
$var wire 1 L! U0|U1|shiftreg_out [7] $end
$var wire 1 M! U0|U1|shiftreg_out [6] $end
$var wire 1 N! U0|U1|shiftreg_out [5] $end
$var wire 1 O! U0|U1|shiftreg_out [4] $end
$var wire 1 P! U0|U1|shiftreg_out [3] $end
$var wire 1 Q! U0|U1|shiftreg_out [2] $end
$var wire 1 R! U0|U1|shiftreg_out [1] $end
$var wire 1 S! U0|U1|shiftreg_out [0] $end
$upscope $end
$upscope $end
$enddefinitions $end
#0
$dumpvars
0!
b110 "
1#
0$
1%
1)
1(
0'
1&
0*
0+
08
17
16
15
04
13
12
11
00
1/
0.
0-
0,
0<
0;
0:
09
x=
0>
1?
x@
1A
1B
1C
0D
0E
0F
0G
0H
0I
0J
0K
0L
0M
1N
0O
0P
0Q
0R
0S
1T
0U
0V
1W
1X
0Y
0Z
1[
0\
1]
1^
1_
0`
0a
0b
0c
1d
0e
0f
1g
1h
1i
1j
1k
1l
1m
0n
1o
1p
1q
1r
0s
1t
0u
0v
1w
0x
1y
1z
1{
1|
1}
0~
0!!
1"!
1#!
1$!
0%!
1&!
1'!
0(!
1)!
0*!
0+!
0,!
1-!
0.!
0/!
10!
01!
12!
03!
14!
15!
06!
17!
0:!
19!
18!
0>!
0=!
0<!
0;!
0B!
0A!
0@!
0?!
0F!
zE!
zD!
zC!
0S!
0R!
zQ!
zP!
zO!
zN!
zM!
zL!
zK!
zJ!
0I!
zH!
zG!
$end
#10000
1!
1,!
0=
#20000
1$
0!
1Z
0,!
1=
1.!
1/!
11!
1>!
#30000
0#
1!
0w
1,!
0=
1B!
0/!
1*!
0'!
1O
0N
1<
01!
0)!
1s
0>!
1=!
0%
#40000
0$
0!
0Z
0,!
1=
0.!
#50000
1!
1,!
0=
16!
13!
0B!
1F!
1S!
1A!
1L
1K
1H
07!
04!
0-!
1Y
1+!
1.!
0q
1n
1f
0<
18
1+
1;
0)
1V
1S
1/!
0W
05!
02!
01
05
1*
0/
10
14
11!
1>!
#60000
1$
0!
1Z
0,!
1=
#70000
1!
1,!
0=
06!
03!
1B!
0F!
0K
1J
1G
1D
17!
14!
0/!
1u
0O
1-!
0Y
0n
0l
0_
0|
1<
1)
0V
0S
01!
1x
0s
15!
1U
1c
1Y
11
15
00
02
06
0(
0>!
1<!
0=!
#80000
0$
0!
0Z
0,!
1=
#90000
1!
1,!
0=
16!
0B!
1F!
0A!
1@!
1R!
0J
1I
0G
07!
1/!
0u
0-!
0Y
1Q
1P
0x
1v
0[
1l
0i
1_
0<
0;
1:
0)
07
0r
1V
11!
1x
0v
1R
0<!
1;!
0U
0T
0c
01
12
03
16
00!
1>!
1<!
0;!
#100000
1$
0!
1Z
0,!
1=
#110000
1!
1,!
0=
1B!
0F!
0S!
0R!
1J
0I
0H
1F
1E
0D
0/!
1O
1-!
1Y
0Q
0P
0+!
1[
0l
1i
0f
0$!
1!!
1|
1<
08
0+
1)
17
01!
1s
1U
1T
12!
1P
0Y
0*
02
13
04
0&
1'
1(
0>!
1=!
#120000
0$
0!
0Z
0,!
1=
#130000
1!
1,!
0=
13!
0B!
1F!
1S!
1A!
1I
1H
04!
1/!
0-!
1Y
1+!
0i
1f
0<
18
1+
1;
0)
1S
11!
0T
02!
05
1*
03
14
1>!
#140000
1$
0!
1Z
0,!
1=
#150000
1!
1,!
0=
03!
1B!
0F!
0H
1G
1D
14!
0/!
1u
0O
1-!
0Y
0f
0_
0|
1<
1)
0S
01!
0x
1v
0s
12!
1c
1Y
15
04
06
0(
0>!
0<!
1;!
0=!
#160000
0$
0!
0Z
0,!
1=
#170000
b10 "
b0 "
b1 "
1!
1:!
09!
08!
1,!
0=
0j
13!
0B!
1F!
0A!
0@!
1?!
1R!
0G
04!
1/!
0u
0-!
0Y
1Q
0P
0v
0[
1_
0<
0;
0:
19
0)
07
0m
1S
11!
1v
0;!
0c
05
16
1>!
1;!
#180000
1$
0!
1Z
0,!
1=
#190000
1!
1,!
0=
1B!
0F!
0S!
0R!
1G
0E
0D
0/!
1O
1-!
1Y
0Q
1P
0+!
1[
0_
0!!
1|
1<
08
0+
1)
17
01!
1s
1c
0P
0Y
0*
06
0'
1(
0>!
1=!
#200000
0$
0!
0Z
0,!
1=
#210000
1!
1,!
0=
0B!
1F!
1S!
1A!
1R!
1/!
0-!
1Y
1+!
0[
0<
18
1+
1;
0)
07
11!
1*
1>!
#220000
1$
0!
1Z
0,!
1=
#230000
1!
1,!
0=
1B!
0F!
0S!
1D
0/!
1u
1-!
0Y
0+!
0d
0|
1<
08
0+
1)
01!
0v
0t
0s
1Y
0*
0(
0>!
0;!
0&!
1x
1v
0=!
#240000
0$
0!
0Z
0,!
1=
#250000
1!
1,!
0=
0B!
1F!
0A!
0?!
1/!
0*!
1'!
0u
0O
1N
0-!
1%!
0Y
1Q
1P
10!
0.!
0x
0v
0<
0;
09
0)
11!
1)!
1&!
0R
0/!
1>!
17!
14!
1$!
1|
1q
0k
1i
1_
01!
1%
0>!
1r
1m
0S
0%!
1R
1Y
0Q
0P
1W
1T
1d
0c
11
15
1&
1(
1/
13
16
1t
0R
06!
03!
0F!
0R!
0L
0J
0I
0G
0F
0D
1-!
0Y
1[
1)
17
#260000
1$
0!
1Z
0,!
1=
1.!
1/!
11!
1>!
#270000
1!
1,!
0=
1B!
0/!
1*!
0'!
1O
0N
1<
01!
0)!
1s
0>!
1=!
0%
#280000
0$
0!
0Z
0,!
1=
0.!
#290000
1!
1,!
0=
16!
13!
0B!
1F!
1S!
1A!
1L
1K
1J
1I
1H
07!
04!
0-!
1Y
1+!
1.!
0q
1n
1l
0i
1f
0<
18
1+
1;
0)
0V
1S
1/!
0W
05!
0U
0T
02!
01
05
1*
0/
10
12
03
14
11!
1>!
#300000
1$
0!
1Z
0,!
1=
#310000
1!
1,!
0=
06!
03!
1B!
0F!
0K
0J
0I
0H
1G
1D
17!
14!
0/!
1u
0O
1-!
0Y
0n
0l
1i
0f
0_
0|
1<
1)
1V
0S
01!
1x
0s
15!
1U
1T
12!
1c
1Y
11
15
00
02
13
04
06
0(
0>!
1<!
0=!
#320000
b11 "
0$
0!
19!
0Z
0,!
1=
0z
0o
#330000
1!
1,!
0=
16!
13!
0B!
1F!
0A!
1@!
1R!
1J
1I
1H
0G
07!
04!
1/!
0u
0-!
0Y
1Q
1P
0x
1v
0[
1l
0i
1f
1_
0<
0;
1:
0)
07
0r
0V
1S
11!
1x
0v
1R
0<!
1;!
0U
0T
02!
0c
01
05
12
03
14
16
00!
1>!
1<!
0;!
#340000
1$
0!
1Z
0,!
1=
#350000
1!
1,!
0=
03!
1B!
0F!
0S!
0R!
0J
0I
0H
1G
1F
1E
0D
14!
0/!
1O
1-!
1Y
0Q
0P
0+!
1[
0l
1i
0f
0_
0$!
1!!
1|
1<
08
0+
1)
17
0S
01!
1s
1U
1T
12!
1c
1P
0Y
15
0*
02
13
04
06
0&
1'
1(
0>!
1=!
#360000
0$
0!
0Z
0,!
1=
#370000
b111 "
b110 "
b100 "
1!
0:!
09!
18!
1,!
0=
0"!
1z
0g
0]
13!
0B!
1F!
1S!
1A!
1R!
1I
1H
0G
04!
1/!
0-!
1Y
1+!
0[
0i
1f
1_
0<
18
1+
1;
0)
07
1S
11!
0T
02!
0c
05
1*
03
14
16
1>!
#380000
1$
0!
1Z
0,!
1=
#390000
1!
1,!
0=
03!
1B!
0F!
0S!
0R!
0H
1G
1D
14!
0/!
1u
0O
1-!
0Y
0+!
1[
0f
0_
0|
1<
08
0+
1)
17
0S
01!
0x
1v
0s
12!
1c
1Y
15
0*
04
06
0(
0>!
0<!
1;!
0=!
#400000
0$
0!
0Z
0,!
1=
#410000
1!
1,!
0=
13!
0B!
1F!
1S!
0A!
0@!
1?!
1R!
0G
04!
1/!
0u
0-!
0Y
1Q
0P
1+!
0v
0[
1_
0<
18
1+
0;
0:
19
0)
07
0m
1S
11!
1v
0;!
0c
05
1*
16
1>!
1;!
#420000
1$
0!
1Z
0,!
1=
#430000
1!
1,!
0=
1B!
0F!
0S!
0R!
1G
0E
0D
0/!
1O
1-!
1Y
0Q
1P
0+!
1[
0_
0!!
1|
1<
08
0+
1)
17
01!
1s
1c
0P
0Y
0*
06
0'
1(
0>!
1=!
#440000
0$
0!
0Z
0,!
1=
#450000
1!
1,!
0=
0B!
1F!
1S!
1A!
1R!
1/!
0-!
1Y
1+!
0[
0<
18
1+
1;
0)
07
11!
1*
1>!
#460000
1$
0!
1Z
0,!
1=
#470000
1!
1,!
0=
1B!
0F!
0S!
1D
0/!
1u
1-!
0Y
0+!
0d
0|
1<
08
0+
1)
01!
0v
0t
0s
1Y
0*
0(
0>!
0;!
0&!
1x
1v
0=!
#480000
0$
0!
0Z
0,!
1=
#490000
1!
1,!
0=
0B!
1F!
0A!
0?!
1/!
0*!
1'!
0u
0O
1N
0-!
1%!
0Y
1Q
1P
10!
0.!
0x
0v
0<
0;
09
0)
11!
1)!
1&!
0R
0/!
1>!
0#!
1|
0p
0h
0^
01!
1%
0>!
05!
1R
0%!
1Y
0Q
0P
0X
02!
0U
0S
1(
0R
06!
03!
0F!
0R!
0L
0I
0G
0F
0D
1-!
0Y
1d
1[
1)
17
1t
#500000
1$
0!
1Z
0,!
1=
1.!
1/!
11!
1>!
#510000
b101 "
1!
1:!
1,!
0=
1"!
1o
1g
17!
1$!
1#!
1q
1p
1j
14!
1i
1h
1r
1V
15!
1W
1X
1l
1k
1m
1S
1T
12!
1U
11
1&
1/
15
13
0U
0V
12
1B!
0/!
1*!
0'!
1O
0N
1<
01!
0)!
1s
0>!
1=!
0%
#520000
0$
0!
0Z
0,!
1=
0.!
#530000
1!
1,!
0=
16!
13!
0B!
1F!
1S!
1A!
1R!
1L
1K
1H
1G
07!
04!
0-!
1Y
1+!
1.!
0[
0q
1n
1f
1_
0<
18
1+
1;
0)
07
1V
0S
1/!
0W
05!
02!
0c
01
05
1*
0/
10
14
16
11!
1>!
#540000
1$
0!
1Z
0,!
1=
#550000
1!
1,!
0=
06!
03!
1B!
0F!
0S!
0R!
0K
1J
0G
1D
17!
14!
0/!
1u
0O
1-!
0Y
0+!
1[
0n
0l
0_
0|
1<
08
0+
1)
17
0V
1S
01!
1x
0s
15!
1U
1c
1Y
11
15
0*
00
02
06
0(
0>!
1<!
0=!
#560000
0$
0!
0Z
0,!
1=
#570000
1!
1,!
0=
16!
0B!
1F!
1S!
0A!
1@!
1R!
0J
1I
1G
07!
1/!
0u
0-!
0Y
1Q
1P
1+!
0x
1v
0[
1l
0i
1_
0<
18
1+
0;
1:
0)
07
0r
1V
11!
1x
0v
1R
0<!
1;!
0U
0T
0c
01
1*
12
03
16
00!
1>!
1<!
0;!
#580000
1$
0!
1Z
0,!
1=
#590000
1!
1,!
0=
1B!
0F!
0S!
0R!
1J
0I
0H
1F
1E
0D
0/!
1O
1-!
1Y
0Q
0P
0+!
1[
0l
1i
0f
0$!
1!!
1|
1<
08
0+
1)
17
01!
1s
1U
1T
12!
1P
0Y
0*
02
13
04
0&
1'
1(
0>!
1=!
#600000
0$
0!
0Z
0,!
1=
#610000
1!
1,!
0=
13!
0B!
1F!
1S!
1A!
1I
1H
04!
1/!
0-!
1Y
1+!
0i
1f
0<
18
1+
1;
0)
0S
11!
0T
02!
05
1*
03
14
1>!
#620000
1$
0!
1Z
0,!
1=
#630000
1!
1,!
0=
03!
1B!
0F!
0H
0G
1D
14!
0/!
1u
0O
1-!
0Y
0f
0_
0|
1<
1)
1S
01!
0x
1v
0s
12!
1c
1Y
15
04
06
0(
0>!
0<!
1;!
0=!
#640000
0$
0!
0Z
0,!
1=
#650000
1!
1,!
0=
13!
0B!
1F!
0A!
0@!
1?!
1R!
1G
04!
1/!
0u
0-!
0Y
1Q
0P
0v
0[
1_
0<
0;
0:
19
0)
07
0m
0S
11!
1v
0;!
0c
05
16
1>!
1;!
#660000
b111 "
1$
0!
19!
1Z
0,!
1=
0z
0o
0j
#670000
1!
1,!
0=
1B!
0F!
0S!
0R!
0G
0E
0D
0/!
1O
1-!
1Y
0Q
1P
0+!
1[
0_
0!!
1|
1<
08
0+
1)
17
01!
1s
1c
0P
0Y
0*
06
0'
1(
0>!
1=!
#680000
0$
0!
0Z
0,!
1=
#690000
1!
1,!
0=
0B!
1F!
1S!
1A!
1R!
1/!
0-!
1Y
1+!
0[
0<
18
1+
1;
0)
07
11!
1*
1>!
#700000
1$
0!
1Z
0,!
1=
#710000
1!
1,!
0=
1B!
0F!
0S!
1D
0/!
1u
1-!
0Y
0+!
0d
0|
1<
08
0+
1)
01!
0v
0t
0s
1Y
0*
0(
0>!
0;!
0&!
1x
1v
0=!
#720000
0$
0!
0Z
0,!
1=
#730000
1!
1,!
0=
0B!
1F!
0A!
0?!
1/!
0*!
1'!
0u
0O
1N
0-!
1%!
0Y
1Q
1P
10!
0.!
0x
0v
0<
0;
09
0)
11!
1)!
1&!
0R
0/!
1>!
17!
14!
1$!
0{
0p
0k
1i
01!
1%
0>!
1r
1m
1S
0%!
1R
1Y
0X
1T
11
15
1&
13
1t
06!
03!
0F!
0R!
0L
0J
0I
0F
0D
1-!
0Y
0Q
0P
1d
1[
1)
17
0R
#740000
1$
0!
1Z
0,!
1=
1.!
1/!
11!
1>!
#750000
1!
1,!
0=
1B!
0/!
1*!
0'!
1O
0N
1<
01!
0)!
1s
0>!
1=!
0%
#760000
0$
0!
0Z
0,!
1=
0.!
#770000
1!
1,!
0=
16!
13!
0B!
1F!
1S!
1A!
1R!
1J
1I
1H
1G
07!
04!
0-!
1Y
1Q
1P
1+!
1.!
0[
1l
0i
1f
1_
0<
18
1+
1;
0)
07
0r
0V
0S
1R
1/!
0U
0T
02!
0c
01
05
1*
12
03
14
16
00!
11!
1>!
#780000
1$
0!
1Z
0,!
1=
#790000
1!
1,!
0=
03!
1B!
0F!
0S!
0R!
0J
0I
0H
0G
1F
1E
1D
14!
0/!
1u
0O
1-!
0Y
0Q
0P
0+!
1[
0l
1i
0f
0_
0$!
1!!
1|
1<
08
0+
1)
17
1S
01!
1x
0s
1U
1T
12!
1c
1P
1Y
15
0*
02
13
04
06
0&
1'
1(
0>!
1<!
0=!
#800000
0$
0!
0Z
0,!
1=
#810000
b110 "
1!
0:!
1,!
0=
1z
1o
1]
1j
13!
0B!
1F!
1S!
0A!
1@!
1R!
1I
1H
1G
04!
1/!
0u
0-!
0Y
1+!
0x
1v
0[
0i
1f
1_
0<
18
1+
0;
1:
0)
07
0S
11!
1x
0v
0<!
1;!
0T
02!
0c
05
1*
03
14
16
1>!
1<!
0;!
#820000
1$
0!
1Z
0,!
1=
#830000
1!
1,!
0=
03!
1B!
0F!
0S!
0R!
0H
0G
0D
14!
0/!
1O
1-!
1Y
0+!
1[
0f
0_
0|
1<
08
0+
1)
17
1S
01!
1s
12!
1c
0Y
15
0*
04
06
0(
0>!
1=!
#840000
0$
0!
0Z
0,!
1=
#850000
1!
1,!
0=
13!
0B!
1F!
1S!
1A!
1R!
1G
04!
1/!
0-!
1Y
1Q
0P
1+!
0[
1_
0<
18
1+
1;
0)
07
0m
0S
11!
0c
05
1*
16
1>!
#860000
1$
0!
1Z
0,!
1=
#870000
1!
1,!
0=
1B!
0F!
0S!
0R!
0G
0E
1D
0/!
1u
0O
1-!
0Y
0Q
1P
0+!
1[
0_
0!!
1|
1<
08
0+
1)
17
01!
0x
1v
0s
1c
0P
1Y
0*
06
0'
1(
0>!
0<!
1;!
0=!
#880000
0$
0!
0Z
0,!
1=
#890000
1!
1,!
0=
0B!
1F!
1S!
0A!
0@!
1?!
1R!
1/!
0u
0-!
0Y
1+!
0v
0[
0<
18
1+
0;
0:
19
0)
07
11!
1v
0;!
1*
1>!
1;!
#900000
b10 "
b0 "
1$
0!
09!
08!
1Z
0,!
1=
0"!
0o
1\
0}
0j
0]
#910000
1!
1,!
0=
1B!
0F!
0S!
0D
0/!
1O
1-!
1Y
0+!
0d
0|
1<
08
0+
1)
01!
0t
0Y
0*
0(
0>!
0&!
0v
#920000
0$
0!
0Z
0,!
1=
#930000
1!
1,!
0=
0B!
1F!
1/!
0O
0-!
1%!
1Y
1Q
1P
0<
0)
1&!
0R
0;!
#940000
1$
0!
1Z
0,!
1=
#950000
1!
1,!
0=
0F!
0?!
0F
1E
1D
1-!
0%!
0Y
0Q
0P
10!
0*!
1'!
1N
1$!
1!!
1|
09
1)
11!
1)!
1P
1Y
1&
1'
1(
1>!
14!
0$!
0#!
1~
1{
1i
1f
1e
1%
1m
1S
05!
0P
0Y
02!
15
0&
13
14
1t
06!
03!
0R!
0I
0E
0D
1d
1[
17
#960000
0$
0!
0Z
0,!
1=
0.!
0/!
01!
0>!
#970000
1!
1,!
0=
#980000
1$
0!
1Z
0,!
1=
1.!
1/!
11!
1>!
#990000
1!
1,!
0=
1B!
0/!
1*!
0'!
1O
0N
1<
01!
0)!
1s
0>!
1=!
0%
